…
Hmm let's do a check to make sure that went right... let's look at the minimum GDP per capita for Oceania

``` r
gapminder %>% 
  #Filter to only see Oceania data
  filter(continent == "Oceania") %>% 
  #Arrange by gdpPercap so that we can see the minimum first
  arrange(gdpPercap)
```

    ## # A tibble: 24 x 6
    ##    country     continent  year lifeExp      pop gdpPercap
    ##    <fct>       <fct>     <int>   <dbl>    <int>     <dbl>
    ##  1 Australia   Oceania    1952    69.1  8691212    10040.
    ##  2 New Zealand Oceania    1952    69.4  1994794    10557.
    ##  3 Australia   Oceania    1957    70.3  9712569    10950.
    ##  4 Australia   Oceania    1962    70.9 10794968    12217.
    ##  5 New Zealand Oceania    1957    70.3  2229407    12247.
    ##  6 New Zealand Oceania    1962    71.2  2488550    13176.
    ##  7 New Zealand Oceania    1967    71.5  2728150    14464.
    ##  8 Australia   Oceania    1967    71.1 11872264    14526.
    ##  9 New Zealand Oceania    1972    71.9  2929100    16046.
    ## 10 New Zealand Oceania    1977    72.2  3164900    16234.
    ## # ... with 14 more rows
…
